project/guitarpong/simulation/qsim/skeleton.msim.vcd
$comment
	File created using the following command:
		vcd file skeleton.msim.vcd -direction
$end
$date
	Sun Apr 21 22:01:52 2019
$end
$version
	ModelSim Version 10.5b
$end
$timescale
	1ps
$end

$scope module mux_16_vlg_vec_tst $end
$var reg 12 ! c [11:0] $end
$var reg 19 " in0 [18:0] $end
$var reg 19 # in1 [18:0] $end
$var reg 19 $ in2 [18:0] $end
$var reg 19 % in3 [18:0] $end
$var reg 19 & in4 [18:0] $end
$var reg 19 ' in5 [18:0] $end
$var reg 19 ( in6 [18:0] $end
$var reg 19 ) in7 [18:0] $end
$var reg 19 * in8 [18:0] $end
$var reg 19 + in9 [18:0] $end
$var reg 19 , in10 [18:0] $end
$var reg 19 - in11 [18:0] $end
$var wire 1 . out [18] $end
$var wire 1 / out [17] $end
$var wire 1 0 out [16] $end
$var wire 1 1 out [15] $end
$var wire 1 2 out [14] $end
$var wire 1 3 out [13] $end
$var wire 1 4 out [12] $end
$var wire 1 5 out [11] $end
$var wire 1 6 out [10] $end
$var wire 1 7 out [9] $end
$var wire 1 8 out [8] $end
$var wire 1 9 out [7] $end
$var wire 1 : out [6] $end
$var wire 1 ; out [5] $end
$var wire 1 < out [4] $end
$var wire 1 = out [3] $end
$var wire 1 > out [2] $end
$var wire 1 ? out [1] $end
$var wire 1 @ out [0] $end

$scope module i1 $end
$var wire 1 A gnd $end
$var wire 1 B vcc $end
$var wire 1 C unknown $end
$var tri1 1 D devclrn $end
$var tri1 1 E devpor $end
$var tri1 1 F devoe $end
$var wire 1 G c[11]~input_o $end
$var wire 1 H out[0]~output_o $end
$var wire 1 I out[1]~output_o $end
$var wire 1 J out[2]~output_o $end
$var wire 1 K out[3]~output_o $end
$var wire 1 L out[4]~output_o $end
$var wire 1 M out[5]~output_o $end
$var wire 1 N out[6]~output_o $end
$var wire 1 O out[7]~output_o $end
$var wire 1 P out[8]~output_o $end
$var wire 1 Q out[9]~output_o $end
$var wire 1 R out[10]~output_o $end
$var wire 1 S out[11]~output_o $end
$var wire 1 T out[12]~output_o $end
$var wire 1 U out[13]~output_o $end
$var wire 1 V out[14]~output_o $end
$var wire 1 W out[15]~output_o $end
$var wire 1 X out[16]~output_o $end
$var wire 1 Y out[17]~output_o $end
$var wire 1 Z out[18]~output_o $end
$var wire 1 [ in8[0]~input_o $end
$var wire 1 \ c[8]~input_o $end
$var wire 1 ] c[9]~input_o $end
$var wire 1 ^ w10~0_combout $end
$var wire 1 _ in9[0]~input_o $end
$var wire 1 ` c[10]~input_o $end
$var wire 1 a out~0_combout $end
$var wire 1 b in10[0]~input_o $end
$var wire 1 c in11[0]~input_o $end
$var wire 1 d out~1_combout $end
$var wire 1 e out~2_combout $end
$var wire 1 f in5[0]~input_o $end
$var wire 1 g c[5]~input_o $end
$var wire 1 h c[4]~input_o $end
$var wire 1 i w9~0_combout $end
$var wire 1 j in6[0]~input_o $end
$var wire 1 k in7[0]~input_o $end
$var wire 1 l c[6]~input_o $end
$var wire 1 m out~3_combout $end
$var wire 1 n out~4_combout $end
$var wire 1 o in4[0]~input_o $end
$var wire 1 p out~5_combout $end
$var wire 1 q c[2]~input_o $end
$var wire 1 r c[3]~input_o $end
$var wire 1 s c[0]~input_o $end
$var wire 1 t c[1]~input_o $end
$var wire 1 u w12~0_combout $end
$var wire 1 v c[7]~input_o $end
$var wire 1 w out~6_combout $end
$var wire 1 x out~7_combout $end
$var wire 1 y in2[0]~input_o $end
$var wire 1 z out~8_combout $end
$var wire 1 { in1[0]~input_o $end
$var wire 1 | in3[0]~input_o $end
$var wire 1 } w8~0_combout $end
$var wire 1 ~ out~9_combout $end
$var wire 1 !! in0[0]~input_o $end
$var wire 1 "! out~10_combout $end
$var wire 1 #! out~11_combout $end
$var wire 1 $! in10[1]~input_o $end
$var wire 1 %! in8[1]~input_o $end
$var wire 1 &! in9[1]~input_o $end
$var wire 1 '! in11[1]~input_o $end
$var wire 1 (! out~12_combout $end
$var wire 1 )! out~13_combout $end
$var wire 1 *! in4[1]~input_o $end
$var wire 1 +! in6[1]~input_o $end
$var wire 1 ,! in7[1]~input_o $end
$var wire 1 -! in5[1]~input_o $end
$var wire 1 .! out~14_combout $end
$var wire 1 /! out~15_combout $end
$var wire 1 0! out~16_combout $end
$var wire 1 1! in3[1]~input_o $end
$var wire 1 2! in2[1]~input_o $end
$var wire 1 3! out~17_combout $end
$var wire 1 4! in0[1]~input_o $end
$var wire 1 5! in1[1]~input_o $end
$var wire 1 6! out~18_combout $end
$var wire 1 7! out~19_combout $end
$var wire 1 8! in0[2]~input_o $end
$var wire 1 9! in2[2]~input_o $end
$var wire 1 :! in3[2]~input_o $end
$var wire 1 ;! in1[2]~input_o $end
$var wire 1 <! out~25_combout $end
$var wire 1 =! out~26_combout $end
$var wire 1 >! in5[2]~input_o $end
$var wire 1 ?! in4[2]~input_o $end
$var wire 1 @! in6[2]~input_o $end
$var wire 1 A! in7[2]~input_o $end
$var wire 1 B! out~22_combout $end
$var wire 1 C! out~23_combout $end
$var wire 1 D! in8[2]~input_o $end
$var wire 1 E! in11[2]~input_o $end
$var wire 1 F! in10[2]~input_o $end
$var wire 1 G! out~20_combout $end
$var wire 1 H! in9[2]~input_o $end
$var wire 1 I! out~21_combout $end
$var wire 1 J! out~24_combout $end
$var wire 1 K! out~27_combout $end
$var wire 1 L! in4[3]~input_o $end
$var wire 1 M! in5[3]~input_o $end
$var wire 1 N! in7[3]~input_o $end
$var wire 1 O! out~30_combout $end
$var wire 1 P! in6[3]~input_o $end
$var wire 1 Q! out~31_combout $end
$var wire 1 R! in9[3]~input_o $end
$var wire 1 S! in11[3]~input_o $end
$var wire 1 T! out~28_combout $end
$var wire 1 U! in8[3]~input_o $end
$var wire 1 V! in10[3]~input_o $end
$var wire 1 W! out~29_combout $end
$var wire 1 X! out~32_combout $end
$var wire 1 Y! in1[3]~input_o $end
$var wire 1 Z! in0[3]~input_o $end
$var wire 1 [! in3[3]~input_o $end
$var wire 1 \! in2[3]~input_o $end
$var wire 1 ]! out~33_combout $end
$var wire 1 ^! out~34_combout $end
$var wire 1 _! out~35_combout $end
$var wire 1 `! in11[4]~input_o $end
$var wire 1 a! in10[4]~input_o $end
$var wire 1 b! out~36_combout $end
$var wire 1 c! in9[4]~input_o $end
$var wire 1 d! in8[4]~input_o $end
$var wire 1 e! out~37_combout $end
$var wire 1 f! in7[4]~input_o $end
$var wire 1 g! in6[4]~input_o $end
$var wire 1 h! out~38_combout $end
$var wire 1 i! in5[4]~input_o $end
$var wire 1 j! in4[4]~input_o $end
$var wire 1 k! out~39_combout $end
$var wire 1 l! out~40_combout $end
$var wire 1 m! in0[4]~input_o $end
$var wire 1 n! in2[4]~input_o $end
$var wire 1 o! in1[4]~input_o $end
$var wire 1 p! in3[4]~input_o $end
$var wire 1 q! out~41_combout $end
$var wire 1 r! out~42_combout $end
$var wire 1 s! out~43_combout $end
$var wire 1 t! in0[5]~input_o $end
$var wire 1 u! in1[5]~input_o $end
$var wire 1 v! in2[5]~input_o $end
$var wire 1 w! in3[5]~input_o $end
$var wire 1 x! out~49_combout $end
$var wire 1 y! out~50_combout $end
$var wire 1 z! in10[5]~input_o $end
$var wire 1 {! in11[5]~input_o $end
$var wire 1 |! in9[5]~input_o $end
$var wire 1 }! out~44_combout $end
$var wire 1 ~! in8[5]~input_o $end
$var wire 1 !" out~45_combout $end
$var wire 1 "" in7[5]~input_o $end
$var wire 1 #" in5[5]~input_o $end
$var wire 1 $" out~46_combout $end
$var wire 1 %" in6[5]~input_o $end
$var wire 1 &" in4[5]~input_o $end
$var wire 1 '" out~47_combout $end
$var wire 1 (" out~48_combout $end
$var wire 1 )" out~51_combout $end
$var wire 1 *" in5[6]~input_o $end
$var wire 1 +" in7[6]~input_o $end
$var wire 1 ," in6[6]~input_o $end
$var wire 1 -" out~54_combout $end
$var wire 1 ." in4[6]~input_o $end
$var wire 1 /" out~55_combout $end
$var wire 1 0" in8[6]~input_o $end
$var wire 1 1" in9[6]~input_o $end
$var wire 1 2" in10[6]~input_o $end
$var wire 1 3" in11[6]~input_o $end
$var wire 1 4" out~52_combout $end
$var wire 1 5" out~53_combout $end
$var wire 1 6" out~56_combout $end
$var wire 1 7" in2[6]~input_o $end
$var wire 1 8" in0[6]~input_o $end
$var wire 1 9" in3[6]~input_o $end
$var wire 1 :" in1[6]~input_o $end
$var wire 1 ;" out~57_combout $end
$var wire 1 <" out~58_combout $end
$var wire 1 =" out~59_combout $end
$var wire 1 >" in0[7]~input_o $end
$var wire 1 ?" in3[7]~input_o $end
$var wire 1 @" in2[7]~input_o $end
$var wire 1 A" out~65_combout $end
$var wire 1 B" in1[7]~input_o $end
$var wire 1 C" out~66_combout $end
$var wire 1 D" in6[7]~input_o $end
$var wire 1 E" in5[7]~input_o $end
$var wire 1 F" in7[7]~input_o $end
$var wire 1 G" out~62_combout $end
$var wire 1 H" in4[7]~input_o $end
$var wire 1 I" out~63_combout $end
$var wire 1 J" in10[7]~input_o $end
$var wire 1 K" in8[7]~input_o $end
$var wire 1 L" in9[7]~input_o $end
$var wire 1 M" in11[7]~input_o $end
$var wire 1 N" out~60_combout $end
$var wire 1 O" out~61_combout $end
$var wire 1 P" out~64_combout $end
$var wire 1 Q" out~67_combout $end
$var wire 1 R" in0[8]~input_o $end
$var wire 1 S" in1[8]~input_o $end
$var wire 1 T" in3[8]~input_o $end
$var wire 1 U" out~73_combout $end
$var wire 1 V" in2[8]~input_o $end
$var wire 1 W" out~74_combout $end
$var wire 1 X" in11[8]~input_o $end
$var wire 1 Y" in10[8]~input_o $end
$var wire 1 Z" out~68_combout $end
$var wire 1 [" in8[8]~input_o $end
$var wire 1 \" in9[8]~input_o $end
$var wire 1 ]" out~69_combout $end
$var wire 1 ^" in4[8]~input_o $end
$var wire 1 _" in6[8]~input_o $end
$var wire 1 `" in7[8]~input_o $end
$var wire 1 a" out~70_combout $end
$var wire 1 b" in5[8]~input_o $end
$var wire 1 c" out~71_combout $end
$var wire 1 d" out~72_combout $end
$var wire 1 e" out~75_combout $end
$var wire 1 f" in1[9]~input_o $end
$var wire 1 g" in0[9]~input_o $end
$var wire 1 h" in2[9]~input_o $end
$var wire 1 i" in3[9]~input_o $end
$var wire 1 j" out~81_combout $end
$var wire 1 k" out~82_combout $end
$var wire 1 l" in8[9]~input_o $end
$var wire 1 m" in10[9]~input_o $end
$var wire 1 n" in11[9]~input_o $end
$var wire 1 o" in9[9]~input_o $end
$var wire 1 p" out~76_combout $end
$var wire 1 q" out~77_combout $end
$var wire 1 r" in5[9]~input_o $end
$var wire 1 s" in7[9]~input_o $end
$var wire 1 t" out~78_combout $end
$var wire 1 u" in4[9]~input_o $end
$var wire 1 v" in6[9]~input_o $end
$var wire 1 w" out~79_combout $end
$var wire 1 x" out~80_combout $end
$var wire 1 y" out~83_combout $end
$var wire 1 z" in4[10]~input_o $end
$var wire 1 {" in6[10]~input_o $end
$var wire 1 |" in7[10]~input_o $end
$var wire 1 }" out~86_combout $end
$var wire 1 ~" in5[10]~input_o $end
$var wire 1 !# out~87_combout $end
$var wire 1 "# in8[10]~input_o $end
$var wire 1 ## in9[10]~input_o $end
$var wire 1 $# in11[10]~input_o $end
$var wire 1 %# in10[10]~input_o $end
$var wire 1 &# out~84_combout $end
$var wire 1 '# out~85_combout $end
$var wire 1 (# out~88_combout $end
$var wire 1 )# in2[10]~input_o $end
$var wire 1 *# in0[10]~input_o $end
$var wire 1 +# in1[10]~input_o $end
$var wire 1 ,# in3[10]~input_o $end
$var wire 1 -# out~89_combout $end
$var wire 1 .# out~90_combout $end
$var wire 1 /# out~91_combout $end
$var wire 1 0# in9[11]~input_o $end
$var wire 1 1# in11[11]~input_o $end
$var wire 1 2# out~92_combout $end
$var wire 1 3# in8[11]~input_o $end
$var wire 1 4# in10[11]~input_o $end
$var wire 1 5# out~93_combout $end
$var wire 1 6# in6[11]~input_o $end
$var wire 1 7# in4[11]~input_o $end
$var wire 1 8# in5[11]~input_o $end
$var wire 1 9# in7[11]~input_o $end
$var wire 1 :# out~94_combout $end
$var wire 1 ;# out~95_combout $end
$var wire 1 <# out~96_combout $end
$var wire 1 =# in0[11]~input_o $end
$var wire 1 ># in3[11]~input_o $end
$var wire 1 ?# in2[11]~input_o $end
$var wire 1 @# out~97_combout $end
$var wire 1 A# in1[11]~input_o $end
$var wire 1 B# out~98_combout $end
$var wire 1 C# out~99_combout $end
$var wire 1 D# in2[12]~input_o $end
$var wire 1 E# in0[12]~input_o $end
$var wire 1 F# in3[12]~input_o $end
$var wire 1 G# in1[12]~input_o $end
$var wire 1 H# out~105_combout $end
$var wire 1 I# out~106_combout $end
$var wire 1 J# in8[12]~input_o $end
$var wire 1 K# in9[12]~input_o $end
$var wire 1 L# in11[12]~input_o $end
$var wire 1 M# in10[12]~input_o $end
$var wire 1 N# out~100_combout $end
$var wire 1 O# out~101_combout $end
$var wire 1 P# in4[12]~input_o $end
$var wire 1 Q# in7[12]~input_o $end
$var wire 1 R# in6[12]~input_o $end
$var wire 1 S# out~102_combout $end
$var wire 1 T# in5[12]~input_o $end
$var wire 1 U# out~103_combout $end
$var wire 1 V# out~104_combout $end
$var wire 1 W# out~107_combout $end
$var wire 1 X# in1[13]~input_o $end
$var wire 1 Y# in2[13]~input_o $end
$var wire 1 Z# in3[13]~input_o $end
$var wire 1 [# out~113_combout $end
$var wire 1 \# in0[13]~input_o $end
$var wire 1 ]# out~114_combout $end
$var wire 1 ^# in7[13]~input_o $end
$var wire 1 _# in5[13]~input_o $end
$var wire 1 `# out~110_combout $end
$var wire 1 a# in6[13]~input_o $end
$var wire 1 b# in4[13]~input_o $end
$var wire 1 c# out~111_combout $end
$var wire 1 d# in9[13]~input_o $end
$var wire 1 e# in11[13]~input_o $end
$var wire 1 f# out~108_combout $end
$var wire 1 g# in8[13]~input_o $end
$var wire 1 h# in10[13]~input_o $end
$var wire 1 i# out~109_combout $end
$var wire 1 j# out~112_combout $end
$var wire 1 k# out~115_combout $end
$var wire 1 l# in1[14]~input_o $end
$var wire 1 m# in3[14]~input_o $end
$var wire 1 n# out~121_combout $end
$var wire 1 o# in0[14]~input_o $end
$var wire 1 p# in2[14]~input_o $end
$var wire 1 q# out~122_combout $end
$var wire 1 r# in9[14]~input_o $end
$var wire 1 s# in8[14]~input_o $end
$var wire 1 t# in11[14]~input_o $end
$var wire 1 u# in10[14]~input_o $end
$var wire 1 v# out~116_combout $end
$var wire 1 w# out~117_combout $end
$var wire 1 x# in4[14]~input_o $end
$var wire 1 y# in7[14]~input_o $end
$var wire 1 z# in6[14]~input_o $end
$var wire 1 {# out~118_combout $end
$var wire 1 |# in5[14]~input_o $end
$var wire 1 }# out~119_combout $end
$var wire 1 ~# out~120_combout $end
$var wire 1 !$ out~123_combout $end
$var wire 1 "$ in2[15]~input_o $end
$var wire 1 #$ in3[15]~input_o $end
$var wire 1 $$ out~129_combout $end
$var wire 1 %$ in1[15]~input_o $end
$var wire 1 &$ in0[15]~input_o $end
$var wire 1 '$ out~130_combout $end
$var wire 1 ($ in4[15]~input_o $end
$var wire 1 )$ in6[15]~input_o $end
$var wire 1 *$ in7[15]~input_o $end
$var wire 1 +$ in5[15]~input_o $end
$var wire 1 ,$ out~126_combout $end
$var wire 1 -$ out~127_combout $end
$var wire 1 .$ in10[15]~input_o $end
$var wire 1 /$ in8[15]~input_o $end
$var wire 1 0$ in9[15]~input_o $end
$var wire 1 1$ in11[15]~input_o $end
$var wire 1 2$ out~124_combout $end
$var wire 1 3$ out~125_combout $end
$var wire 1 4$ out~128_combout $end
$var wire 1 5$ out~131_combout $end
$var wire 1 6$ in10[16]~input_o $end
$var wire 1 7$ in11[16]~input_o $end
$var wire 1 8$ out~132_combout $end
$var wire 1 9$ in8[16]~input_o $end
$var wire 1 :$ in9[16]~input_o $end
$var wire 1 ;$ out~133_combout $end
$var wire 1 <$ in5[16]~input_o $end
$var wire 1 =$ in7[16]~input_o $end
$var wire 1 >$ in6[16]~input_o $end
$var wire 1 ?$ out~134_combout $end
$var wire 1 @$ in4[16]~input_o $end
$var wire 1 A$ out~135_combout $end
$var wire 1 B$ out~136_combout $end
$var wire 1 C$ in1[16]~input_o $end
$var wire 1 D$ in3[16]~input_o $end
$var wire 1 E$ out~137_combout $end
$var wire 1 F$ in2[16]~input_o $end
$var wire 1 G$ in0[16]~input_o $end
$var wire 1 H$ out~138_combout $end
$var wire 1 I$ out~139_combout $end
$var wire 1 J$ in0[17]~input_o $end
$var wire 1 K$ in1[17]~input_o $end
$var wire 1 L$ in3[17]~input_o $end
$var wire 1 M$ in2[17]~input_o $end
$var wire 1 N$ out~145_combout $end
$var wire 1 O$ out~146_combout $end
$var wire 1 P$ in4[17]~input_o $end
$var wire 1 Q$ in5[17]~input_o $end
$var wire 1 R$ in7[17]~input_o $end
$var wire 1 S$ out~142_combout $end
$var wire 1 T$ in6[17]~input_o $end
$var wire 1 U$ out~143_combout $end
$var wire 1 V$ in10[17]~input_o $end
$var wire 1 W$ in8[17]~input_o $end
$var wire 1 X$ in11[17]~input_o $end
$var wire 1 Y$ in9[17]~input_o $end
$var wire 1 Z$ out~140_combout $end
$var wire 1 [$ out~141_combout $end
$var wire 1 \$ out~144_combout $end
$var wire 1 ]$ out~147_combout $end
$var wire 1 ^$ in4[18]~input_o $end
$var wire 1 _$ in5[18]~input_o $end
$var wire 1 `$ in6[18]~input_o $end
$var wire 1 a$ in7[18]~input_o $end
$var wire 1 b$ out~150_combout $end
$var wire 1 c$ out~151_combout $end
$var wire 1 d$ in9[18]~input_o $end
$var wire 1 e$ in10[18]~input_o $end
$var wire 1 f$ in11[18]~input_o $end
$var wire 1 g$ out~148_combout $end
$var wire 1 h$ in8[18]~input_o $end
$var wire 1 i$ out~149_combout $end
$var wire 1 j$ out~152_combout $end
$var wire 1 k$ in2[18]~input_o $end
$var wire 1 l$ in3[18]~input_o $end
$var wire 1 m$ in1[18]~input_o $end
$var wire 1 n$ out~153_combout $end
$var wire 1 o$ in0[18]~input_o $end
$var wire 1 p$ out~154_combout $end
$var wire 1 q$ out~155_combout $end
$upscope $end
$upscope $end
$enddefinitions $end
#0
$dumpvars
b0 !
b11000 "
b1000000 #
b0 $
b0 %
b0 &
b0 '
b0 (
b100000000000000 )
b10000000000000 *
b0 +
b100000000000 ,
b1000 -
0@
0?
0>
1=
0<
0;
0:
09
08
07
06
05
04
03
02
01
00
0/
0.
0A
1B
xC
1D
1E
1F
0G
0H
0I
0J
1K
0L
0M
0N
0O
0P
0Q
0R
0S
0T
0U
0V
0W
0X
0Y
0Z
0[
0\
0]
0^
0_
0`
0a
0b
0c
0d
0e
0f
0g
0h
1i
0j
0k
0l
0m
0n
0o
0p
0q
0r
0s
0t
0u
0v
0w
0x
0y
0z
0{
0|
0}
0~
0!!
0"!
0#!
0$!
0%!
0&!
0'!
0(!
0)!
0*!
0+!
0,!
0-!
0.!
0/!
00!
01!
02!
03!
04!
05!
06!
07!
08!
09!
0:!
0;!
0<!
0=!
0>!
0?!
0@!
0A!
0B!
0C!
0D!
0E!
0F!
0G!
0H!
0I!
0J!
0K!
0L!
0M!
0N!
0O!
0P!
0Q!
0R!
1S!
1T!
0U!
0V!
1W!
1X!
0Y!
1Z!
0[!
0\!
0]!
0^!
1_!
0`!
0a!
0b!
0c!
0d!
0e!
0f!
0g!
0h!
0i!
0j!
0k!
0l!
1m!
0n!
0o!
0p!
0q!
0r!
0s!
0t!
0u!
0v!
0w!
0x!
0y!
0z!
0{!
0|!
0}!
0~!
0!"
0""
0#"
0$"
0%"
0&"
0'"
0("
0)"
0*"
0+"
0,"
0-"
0."
0/"
00"
01"
02"
03"
04"
05"
06"
07"
08"
09"
1:"
0;"
0<"
0="
0>"
0?"
0@"
0A"
0B"
0C"
0D"
0E"
0F"
0G"
0H"
0I"
0J"
0K"
0L"
0M"
0N"
0O"
0P"
0Q"
0R"
0S"
0T"
0U"
0V"
0W"
0X"
0Y"
0Z"
0["
0\"
0]"
0^"
0_"
0`"
0a"
0b"
0c"
0d"
0e"
0f"
0g"
0h"
0i"
0j"
0k"
0l"
0m"
0n"
0o"
0p"
0q"
0r"
0s"
0t"
0u"
0v"
0w"
0x"
0y"
0z"
0{"
0|"
0}"
0~"
0!#
0"#
0##
0$#
0%#
0&#
0'#
0(#
0)#
0*#
0+#
0,#
0-#
0.#
0/#
00#
01#
02#
03#
14#
05#
06#
07#
08#
09#
0:#
0;#
0<#
0=#
0>#
0?#
0@#
0A#
0B#
0C#
0D#
0E#
0F#
0G#
0H#
0I#
0J#
0K#
0L#
0M#
0N#
0O#
0P#
0Q#
0R#
0S#
0T#
0U#
0V#
0W#
0X#
0Y#
0Z#
0[#
0\#
0]#
0^#
0_#
0`#
0a#
0b#
0c#
0d#
0e#
0f#
1g#
0h#
0i#
0j#
0k#
0l#
0m#
0n#
0o#
0p#
0q#
0r#
0s#
0t#
0u#
0v#
0w#
0x#
1y#
0z#
1{#
0|#
1}#
0~#
0!$
0"$
0#$
0$$
0%$
0&$
0'$
0($
0)$
0*$
0+$
0,$
0-$
0.$
0/$
00$
01$
02$
03$
04$
05$
06$
07$
08$
09$
0:$
0;$
0<$
0=$
0>$
0?$
0@$
0A$
0B$
0C$
0D$
0E$
0F$
0G$
0H$
0I$
0J$
0K$
0L$
0M$
0N$
0O$
0P$
0Q$
0R$
0S$
0T$
0U$
0V$
0W$
0X$
0Y$
0Z$
0[$
0\$
0]$
0^$
0_$
0`$
0a$
0b$
0c$
0d$
0e$
0f$
0g$
0h$
0i$
0j$
0k$
0l$
0m$
0n$
0o$
0p$
0q$
$end
#30000
b10000000 !
1v
1w
1~#
0X!
1!$
0_!
0K
1V
12
0=
#70000
b0 !
0v
0w
0~#
1X!
0!$
1_!
1K
0V
02
1=
#90000
b100000000000 !
1G
#130000
b0 !
0G
#140000
b1000 !
1r
1u
1w
0X!
0_!
0K
0=
#160000
b0 !
0r
0u
1~#
0w
0~#
1X!
1!$
1V
12
0!$
1_!
1K
0V
02
1=
#200000
b100000000 !
1\
1a
1^
1g$
1Z$
18$
12$
1v#
1f#
1N#
15#
12#
1&#
1p"
1Z"
1N"
14"
1}!
1b!
0W!
1G!
1(!
1d
1i#
1<#
05#
0X!
1j#
0<#
1C#
0_!
0K
1S
15
0=
1k#
0C#
0S
1U
13
05
#240000
b0 !
0\
0a
0^
0g$
1[$
0Z$
08$
13$
02$
0v#
0f#
0N#
15#
02#
0&#
1q"
0p"
0Z"
1O"
0N"
04"
1!"
0}!
0b!
1W!
0G!
1)!
0(!
0d
1i$
1;$
1w#
1O#
1'#
1]"
15"
1e!
1I!
1e
0i$
1\$
0[$
0;$
14$
03$
0w#
0i#
0O#
1<#
05#
0'#
1x"
0q"
0]"
1P"
0O"
05"
1("
0!"
0e!
1X!
0I!
10!
0)!
0e
1j$
1B$
1~#
1V#
1(#
1d"
16"
1l!
1J!
1x
0j$
0\$
0B$
04$
0~#
0j#
0V#
0<#
0(#
0x"
0d"
0P"
06"
0("
0l!
0J!
00!
0x
1]$
15$
1C#
1y"
1Q"
1)"
1_!
17!
1q$
1I$
1!$
1W#
1/#
1e"
1="
1s!
1K!
1#!
1H
1J
1L
1N
1P
1R
1T
1V
1X
1Z
1I
1K
1M
1O
1Q
1S
1W
1Y
1/
11
15
17
19
1;
1=
1?
1.
10
12
14
16
18
1:
1<
1>
1@
0q$
0]$
0I$
05$
0!$
0k#
0W#
0C#
0/#
0y"
0e"
0Q"
0="
0)"
0s!
0K!
07!
0#!
0H
0I
0J
0L
0M
0N
0O
0P
0Q
0R
0S
0T
0U
0V
0W
0X
0Y
0Z
0.
0/
00
01
02
03
04
05
06
07
08
09
0:
0;
0<
0>
0?
0@
#280000
b10 !
1t
1}
1u
1;"
1w
1<"
0X!
1="
0_!
0K
1N
1:
0=
#300000
b10000000010 !
1`
1a
15#
0W!
0T!
#320000
b10000000000 !
0t
0}
0u
0;"
1~#
0w
0="
0N
0<"
0~#
1<#
0:
1!$
1V
12
0!$
1C#
1S
0V
02
15
#330000
b0 !
0`
0a
05#
1T!
0<#
1W!
1X!
0C#
0S
05
1_!
1K
1=
#430000
b1 !
1s
1}
1z
1u
1n$
1N$
1E$
1$$
1n#
1[#
1H#
1@#
1-#
1j"
1U"
1A"
1;"
1x!
1q!
1]!
1<!
13!
1~
1w
1r!
1^!
0X!
1s!
1L
1<
#480000
b0 !
0s
0}
0z
0u
0n$
1O$
0N$
0E$
1'$
0$$
0n#
1]#
0[#
0H#
1B#
0@#
0-#
1k"
0j"
0U"
1C"
0A"
0;"
1y!
0x!
0q!
0]!
0<!
16!
03!
0~
1p$
1H$
1q#
1I#
1.#
1W"
1<"
1=!
1"!
1~#
0w
0s!
0_!
0K
0L
0p$
0O$
0H$
0'$
0q#
0]#
0I#
0B#
0.#
0k"
0W"
0C"
0<"
0y!
0r!
0^!
0=!
06!
0"!
0~#
1X!
0<
0=
1!$
1V
12
0!$
1_!
1K
0V
02
1=
#510000
b1000000000 !
b1001000000 !
b1001100000 !
b1011100000 !
b1111100000 !
1g
1l
1v
1\
1]
0i
1w
1a
1^
0}#
0{#
1~#
0X!
1g$
1Z$
18$
12$
1v#
1f#
1N#
15#
12#
1&#
1p"
1Z"
1N"
14"
1}!
1b!
0W!
1G!
1(!
1d
0~#
1i#
05#
1!$
0_!
0K
1V
12
0=
0!$
0V
02
#540000
b111100000 !
b110100000 !
b110000000 !
b100000000 !
b0 !
0g
0l
0v
0\
0]
1i
0a
0^
1{#
0w
0g$
1[$
0Z$
08$
13$
02$
0v#
0f#
0N#
15#
02#
0&#
1q"
0p"
0Z"
1O"
0N"
04"
1!"
0}!
0b!
1W!
0G!
1)!
0(!
0d
1i$
1;$
1w#
1O#
1'#
1]"
15"
1e!
1I!
1e
1}#
1j$
1\$
1B$
14$
1~#
1j#
1V#
1<#
1(#
1x"
1d"
1P"
16"
1("
1l!
1X!
1J!
10!
1x
0i$
0[$
0;$
03$
0w#
0i#
0O#
05#
0'#
0q"
0]"
0O"
05"
0!"
0e!
0I!
0)!
0e
0~#
0j$
0\$
0B$
04$
0j#
0V#
0<#
0(#
0x"
0d"
0P"
06"
0("
0l!
0J!
00!
0x
1q$
1]$
1I$
15$
1!$
1k#
1W#
1C#
1/#
1y"
1e"
1Q"
1="
1)"
1s!
1_!
1K!
17!
1#!
1H
1I
1J
1K
1L
1M
1N
1O
1P
1Q
1R
1S
1T
1U
1V
1W
1X
1Y
1Z
1.
1/
10
11
12
13
14
15
16
17
18
19
1:
1;
1<
1=
1>
1?
1@
0!$
0q$
0]$
0I$
05$
0k#
0W#
0C#
0/#
0y"
0e"
0Q"
0="
0)"
0s!
0K!
07!
0#!
0H
0I
0J
0L
0M
0N
0O
0P
0Q
0R
0S
0T
0U
0W
0X
0Y
0Z
0V
02
0.
0/
00
01
03
04
05
06
07
08
09
0:
0;
0<
0>
0?
0@
#600000
b100 !
b110 !
1t
1q
1}
1u
1;"
1w
1<"
0X!
1="
0_!
0K
1N
1:
0=
#640000
b1000000110 !
1]
1^
0T!
0W!
#650000
b1000000010 !
b1000000000 !
0t
0q
0}
0u
0;"
1~#
0w
0="
0N
0<"
0~#
0:
1!$
1V
12
0!$
0V
02
#670000
b0 !
0]
0^
1T!
1W!
1X!
1_!
1K
1=
